^C:\USERS\PARK\DOCUMENTS\VISUAL STUDIO 2013\PROJECTS\POSITION_BASED_FLUID\POSITION_BASED_FLUID\GRID.CPP|C:\USERS\PARK\DOCUMENTS\VISUAL STUDIO 2013\PROJECTS\POSITION_BASED_FLUID\POSITION_BASED_FLUID\MAIN.CPP|C:\USERS\PARK\DOCUMENTS\VISUAL STUDIO 2013\PROJECTS\POSITION_BASED_FLUID\POSITION_BASED_FLUID\PARTICLE.CPP|C:\USERS\PARK\DOCUMENTS\VISUAL STUDIO 2013\PROJECTS\POSITION_BASED_FLUID\POSITION_BASED_FLUID\PBF.CPP|C:\USERS\PARK\DOCUMENTS\VISUAL STUDIO 2013\PROJECTS\POSITION_BASED_FLUID\POSITION_BASED_FLUID\VECTOR.CPP
C:\USERS\PARK\DOCUMENTS\VISUAL STUDIO 2013\PROJECTS\POSITION_BASED_FLUID\POSITION_BASED_FLUID\DEBUG\VC120.PDB
C:\USERS\PARK\DOCUMENTS\VISUAL STUDIO 2013\PROJECTS\POSITION_BASED_FLUID\POSITION_BASED_FLUID\DEBUG\VC120.IDB
C:\USERS\PARK\DOCUMENTS\VISUAL STUDIO 2013\PROJECTS\POSITION_BASED_FLUID\POSITION_BASED_FLUID\DEBUG\GRID.OBJ
C:\USERS\PARK\DOCUMENTS\VISUAL STUDIO 2013\PROJECTS\POSITION_BASED_FLUID\POSITION_BASED_FLUID\DEBUG\PARTICLE.OBJ
C:\USERS\PARK\DOCUMENTS\VISUAL STUDIO 2013\PROJECTS\POSITION_BASED_FLUID\POSITION_BASED_FLUID\DEBUG\PBF.OBJ
C:\USERS\PARK\DOCUMENTS\VISUAL STUDIO 2013\PROJECTS\POSITION_BASED_FLUID\POSITION_BASED_FLUID\DEBUG\VECTOR.OBJ
C:\USERS\PARK\DOCUMENTS\VISUAL STUDIO 2013\PROJECTS\POSITION_BASED_FLUID\POSITION_BASED_FLUID\DEBUG\MAIN.OBJ
^C:\USERS\PARK\DOCUMENTS\VISUAL STUDIO 2013\PROJECTS\POSITION_BASED_FLUID\POSITION_BASED_FLUID\GRID.CPP
C:\USERS\PARK\DOCUMENTS\VISUAL STUDIO 2013\PROJECTS\POSITION_BASED_FLUID\POSITION_BASED_FLUID\DEBUG\VC120.PDB
^C:\USERS\PARK\DOCUMENTS\VISUAL STUDIO 2013\PROJECTS\POSITION_BASED_FLUID\POSITION_BASED_FLUID\MAIN.CPP
C:\USERS\PARK\DOCUMENTS\VISUAL STUDIO 2013\PROJECTS\POSITION_BASED_FLUID\POSITION_BASED_FLUID\DEBUG\VC120.PDB
C:\USERS\PARK\DOCUMENTS\VISUAL STUDIO 2013\PROJECTS\POSITION_BASED_FLUID\POSITION_BASED_FLUID\DEBUG\VC120.IDB
C:\USERS\PARK\DOCUMENTS\VISUAL STUDIO 2013\PROJECTS\POSITION_BASED_FLUID\POSITION_BASED_FLUID\DEBUG\MAIN.OBJ
^C:\USERS\PARK\DOCUMENTS\VISUAL STUDIO 2013\PROJECTS\POSITION_BASED_FLUID\POSITION_BASED_FLUID\PARTICLE.CPP
C:\USERS\PARK\DOCUMENTS\VISUAL STUDIO 2013\PROJECTS\POSITION_BASED_FLUID\POSITION_BASED_FLUID\DEBUG\VC120.PDB
^C:\USERS\PARK\DOCUMENTS\VISUAL STUDIO 2013\PROJECTS\POSITION_BASED_FLUID\POSITION_BASED_FLUID\PBF.CPP
C:\USERS\PARK\DOCUMENTS\VISUAL STUDIO 2013\PROJECTS\POSITION_BASED_FLUID\POSITION_BASED_FLUID\DEBUG\VC120.PDB
C:\USERS\PARK\DOCUMENTS\VISUAL STUDIO 2013\PROJECTS\POSITION_BASED_FLUID\POSITION_BASED_FLUID\DEBUG\VC120.IDB
C:\USERS\PARK\DOCUMENTS\VISUAL STUDIO 2013\PROJECTS\POSITION_BASED_FLUID\POSITION_BASED_FLUID\DEBUG\PBF.OBJ
^C:\USERS\PARK\DOCUMENTS\VISUAL STUDIO 2013\PROJECTS\POSITION_BASED_FLUID\POSITION_BASED_FLUID\VECTOR.CPP
C:\USERS\PARK\DOCUMENTS\VISUAL STUDIO 2013\PROJECTS\POSITION_BASED_FLUID\POSITION_BASED_FLUID\DEBUG\VC120.PDB
^C:\USERS\PARK\DOCUMENTS\VISUAL STUDIO 2013\PROJECTS\POSITION_BASED_FLUID\POSITION_BASED_FLUID\MAIN.CPP|C:\USERS\PARK\DOCUMENTS\VISUAL STUDIO 2013\PROJECTS\POSITION_BASED_FLUID\POSITION_BASED_FLUID\PBF.CPP
C:\USERS\PARK\DOCUMENTS\VISUAL STUDIO 2013\PROJECTS\POSITION_BASED_FLUID\POSITION_BASED_FLUID\DEBUG\VC120.PDB
C:\USERS\PARK\DOCUMENTS\VISUAL STUDIO 2013\PROJECTS\POSITION_BASED_FLUID\POSITION_BASED_FLUID\DEBUG\VC120.IDB
C:\USERS\PARK\DOCUMENTS\VISUAL STUDIO 2013\PROJECTS\POSITION_BASED_FLUID\POSITION_BASED_FLUID\DEBUG\PBF.OBJ
C:\USERS\PARK\DOCUMENTS\VISUAL STUDIO 2013\PROJECTS\POSITION_BASED_FLUID\POSITION_BASED_FLUID\DEBUG\MAIN.OBJ
^C:\USERS\PARK\DOCUMENTS\VISUAL STUDIO 2013\PROJECTS\POSITION_BASED_FLUID\POSITION_BASED_FLUID\GRID.CPP|C:\USERS\PARK\DOCUMENTS\VISUAL STUDIO 2013\PROJECTS\POSITION_BASED_FLUID\POSITION_BASED_FLUID\MAIN.CPP|C:\USERS\PARK\DOCUMENTS\VISUAL STUDIO 2013\PROJECTS\POSITION_BASED_FLUID\POSITION_BASED_FLUID\PARTICLE.CPP|C:\USERS\PARK\DOCUMENTS\VISUAL STUDIO 2013\PROJECTS\POSITION_BASED_FLUID\POSITION_BASED_FLUID\PBF.CPP
C:\USERS\PARK\DOCUMENTS\VISUAL STUDIO 2013\PROJECTS\POSITION_BASED_FLUID\POSITION_BASED_FLUID\DEBUG\VC120.PDB
C:\USERS\PARK\DOCUMENTS\VISUAL STUDIO 2013\PROJECTS\POSITION_BASED_FLUID\POSITION_BASED_FLUID\DEBUG\VC120.IDB
C:\USERS\PARK\DOCUMENTS\VISUAL STUDIO 2013\PROJECTS\POSITION_BASED_FLUID\POSITION_BASED_FLUID\DEBUG\PBF.OBJ
C:\USERS\PARK\DOCUMENTS\VISUAL STUDIO 2013\PROJECTS\POSITION_BASED_FLUID\POSITION_BASED_FLUID\DEBUG\PARTICLE.OBJ
