^C:\USERS\MINJU\DOCUMENTS\VISUAL STUDIO 2013\PROJECTS\POSITION BASED FLUID\POSITION_BASED_FLUID\RELEASE\FILEMANAGER.OBJ|C:\USERS\MINJU\DOCUMENTS\VISUAL STUDIO 2013\PROJECTS\POSITION BASED FLUID\POSITION_BASED_FLUID\RELEASE\GRID.OBJ|C:\USERS\MINJU\DOCUMENTS\VISUAL STUDIO 2013\PROJECTS\POSITION BASED FLUID\POSITION_BASED_FLUID\RELEASE\MAIN.OBJ|C:\USERS\MINJU\DOCUMENTS\VISUAL STUDIO 2013\PROJECTS\POSITION BASED FLUID\POSITION_BASED_FLUID\RELEASE\PARTICLE.OBJ|C:\USERS\MINJU\DOCUMENTS\VISUAL STUDIO 2013\PROJECTS\POSITION BASED FLUID\POSITION_BASED_FLUID\RELEASE\PBF.OBJ|C:\USERS\MINJU\DOCUMENTS\VISUAL STUDIO 2013\PROJECTS\POSITION BASED FLUID\POSITION_BASED_FLUID\RELEASE\VECTOR.OBJ
C:\WINDOWS\GLOBALIZATION\SORTING\SORTDEFAULT.NLS
C:\PROGRAM FILES (X86)\WINDOWS KITS\8.1\LIB\WINV6.3\UM\X86\KERNEL32.LIB
C:\PROGRAM FILES (X86)\WINDOWS KITS\8.1\LIB\WINV6.3\UM\X86\USER32.LIB
C:\PROGRAM FILES (X86)\WINDOWS KITS\8.1\LIB\WINV6.3\UM\X86\GDI32.LIB
C:\PROGRAM FILES (X86)\WINDOWS KITS\8.1\LIB\WINV6.3\UM\X86\WINSPOOL.LIB
C:\PROGRAM FILES (X86)\WINDOWS KITS\8.1\LIB\WINV6.3\UM\X86\COMDLG32.LIB
C:\PROGRAM FILES (X86)\WINDOWS KITS\8.1\LIB\WINV6.3\UM\X86\ADVAPI32.LIB
C:\PROGRAM FILES (X86)\WINDOWS KITS\8.1\LIB\WINV6.3\UM\X86\SHELL32.LIB
C:\PROGRAM FILES (X86)\WINDOWS KITS\8.1\LIB\WINV6.3\UM\X86\OLE32.LIB
C:\PROGRAM FILES (X86)\WINDOWS KITS\8.1\LIB\WINV6.3\UM\X86\OLEAUT32.LIB
C:\PROGRAM FILES (X86)\WINDOWS KITS\8.1\LIB\WINV6.3\UM\X86\UUID.LIB
C:\PROGRAM FILES (X86)\WINDOWS KITS\8.1\LIB\WINV6.3\UM\X86\ODBC32.LIB
C:\PROGRAM FILES (X86)\WINDOWS KITS\8.1\LIB\WINV6.3\UM\X86\ODBCCP32.LIB
C:\USERS\MINJU\DOCUMENTS\VISUAL STUDIO 2013\PROJECTS\POSITION BASED FLUID\POSITION_BASED_FLUID\RELEASE\FILEMANAGER.OBJ
C:\USERS\MINJU\DOCUMENTS\VISUAL STUDIO 2013\PROJECTS\POSITION BASED FLUID\POSITION_BASED_FLUID\RELEASE\GRID.OBJ
C:\USERS\MINJU\DOCUMENTS\VISUAL STUDIO 2013\PROJECTS\POSITION BASED FLUID\POSITION_BASED_FLUID\RELEASE\MAIN.OBJ
C:\USERS\MINJU\DOCUMENTS\VISUAL STUDIO 2013\PROJECTS\POSITION BASED FLUID\POSITION_BASED_FLUID\RELEASE\PARTICLE.OBJ
C:\USERS\MINJU\DOCUMENTS\VISUAL STUDIO 2013\PROJECTS\POSITION BASED FLUID\POSITION_BASED_FLUID\RELEASE\PBF.OBJ
C:\USERS\MINJU\DOCUMENTS\VISUAL STUDIO 2013\PROJECTS\POSITION BASED FLUID\POSITION_BASED_FLUID\RELEASE\VECTOR.OBJ
C:\PROGRAM FILES (X86)\MICROSOFT VISUAL STUDIO 12.0\VC\BIN\C2.DLL
C:\PROGRAM FILES (X86)\MICROSOFT VISUAL STUDIO 12.0\VC\LIB\MSVCPRT.LIB
C:\PROGRAM FILES (X86)\WINDOWS KITS\8.1\LIB\WINV6.3\UM\X86\WINMM.LIB
C:\PROGRAM FILES (X86)\WINDOWS KITS\8.1\LIB\WINV6.3\UM\X86\OPENGL32.LIB
C:\PROGRAM FILES (X86)\WINDOWS KITS\8.1\LIB\WINV6.3\UM\X86\GLU32.LIB
C:\PROGRAM FILES (X86)\WINDOWS KITS\8.1\LIB\WINV6.3\UM\X86\GLUT32.LIB
C:\PROGRAM FILES (X86)\MICROSOFT VISUAL STUDIO 12.0\VC\LIB\MSVCRT.LIB
C:\PROGRAM FILES (X86)\MICROSOFT VISUAL STUDIO 12.0\VC\LIB\OLDNAMES.LIB
C:\PROGRAM FILES (X86)\MICROSOFT VISUAL STUDIO 12.0\VC\BIN\1033\LINKUI.DLL
C:\PROGRAM FILES (X86)\WINDOWS KITS\8.1\BIN\X86\RC.EXE
C:\PROGRAM FILES (X86)\MICROSOFT VISUAL STUDIO 12.0\VC\BIN\CVTRES.EXE
C:\WINDOWS\SYSTEM32\TZRES.DLL
